<svg xmlns="http://www.w3.org/2000/svg" xmlns:xlink="http://www.w3.org/1999/xlink" width="1478.451" height="248.536" viewBox="0 0 1478.451 248.536">
  <defs>
    <filter id="Rectangle_811" x="0" y="86.536" width="1478.451" height="162" filterUnits="userSpaceOnUse">
      <feOffset dy="3" input="SourceAlpha"/>
      <feGaussianBlur stdDeviation="7.5" result="blur"/>
      <feFlood flood-color="#163d47" flood-opacity="0.506"/>
      <feComposite operator="in" in2="blur"/>
      <feComposite in="SourceGraphic"/>
    </filter>
  </defs>
  <g id="Group_480" data-name="Group 480" transform="translate(-220.5 -5881.202)">
    <g transform="matrix(1, 0, 0, 1, 220.5, 5881.2)" filter="url(#Rectangle_811)">
      <rect id="Rectangle_811-2" data-name="Rectangle 811" width="1433.451" height="117" rx="5" transform="translate(22.5 106.04)" fill="#163d47"/>
    </g>
    <text id="Green.Cryptonit" transform="translate(649.549 6036.202)" fill="#fff" font-size="28" font-family="Montserrat-Bold, Montserrat" font-weight="700"><tspan x="-24.52" y="0">52</tspan><tspan y="0" font-size="20" font-family="Montserrat-Thin, Montserrat" font-weight="200">%</tspan></text>
    <text id="Green.Cryptonit-2" data-name="Green.Cryptonit" transform="translate(1071.549 6035.646)" fill="#fff" font-size="24" font-family="Montserrat-Bold, Montserrat" font-weight="700"><tspan x="-22.004" y="0">20</tspan><tspan y="0" font-size="17" font-family="Montserrat-Thin, Montserrat" font-weight="200">%</tspan></text>
    <text id="Green.Cryptonit-3" data-name="Green.Cryptonit" transform="translate(1233 6035.646)" fill="#fff" font-size="24" font-family="Montserrat-Bold, Montserrat" font-weight="700"><tspan x="-19.424" y="0">18</tspan><tspan y="0" font-size="17" font-family="Montserrat-Thin, Montserrat" font-weight="200">%</tspan></text>
    <text id="Green.Cryptonit-4" data-name="Green.Cryptonit" transform="translate(1360 6034.646)" fill="#fff" font-size="23" font-family="Montserrat-Bold, Montserrat" font-weight="700"><tspan x="-14.323" y="0">4</tspan><tspan y="0" font-size="16" font-family="Montserrat-Thin, Montserrat" font-weight="200">%</tspan></text>
    <text id="Green.Cryptonit-5" data-name="Green.Cryptonit" transform="translate(1444 6034.646)" fill="#fff" font-size="23" font-family="Montserrat-Bold, Montserrat" font-weight="700"><tspan x="-13.185" y="0">2</tspan><tspan y="0" font-size="16" font-family="Montserrat-Thin, Montserrat" font-weight="200">%</tspan></text>
    <text id="Green.Cryptonit-6" data-name="Green.Cryptonit" transform="translate(1512 6034.646)" fill="#fff" font-size="23" font-family="Montserrat-Bold, Montserrat" font-weight="700"><tspan x="-13.185" y="0">2</tspan><tspan y="0" font-size="16" font-family="Montserrat-Thin, Montserrat" font-weight="200">%</tspan></text>
    <text id="Green.Cryptonit-7" data-name="Green.Cryptonit" transform="translate(1581 6034.646)" fill="#fff" font-size="23" font-family="Montserrat-Bold, Montserrat" font-weight="700"><tspan x="-13.185" y="0">2</tspan><tspan y="0" font-size="16" font-family="Montserrat-Thin, Montserrat" font-weight="200">%</tspan></text>
    <rect id="Bg" width="652.049" height="12.536" rx="6.268" transform="translate(316 6050.202)" fill="#ef3340"/>
    <rect id="Bg-2" data-name="Bg" width="175.425" height="12.536" rx="6.268" transform="translate(979 6050.202)" fill="#ef3340"/>
    <rect id="Bg-3" data-name="Bg" width="142.876" height="12.536" rx="6.268" transform="translate(1166 6050.202)" fill="#ef3340"/>
    <rect id="Bg-4" data-name="Bg" width="86.396" height="12.536" rx="6.268" transform="translate(1320 6050.202)" fill="#ef3340"/>
    <rect id="Bg-5" data-name="Bg" width="56.719" height="12.536" rx="6.268" transform="translate(1417 6050.202)" fill="#ef3340"/>
    <rect id="Bg-6" data-name="Bg" width="56.719" height="12.536" rx="6.268" transform="translate(1485 6050.202)" fill="#ef3340"/>
    <rect id="Bg-7" data-name="Bg" width="56.719" height="12.536" rx="6.268" transform="translate(1553 6050.202)" fill="#ef3340"/>
    <text id="How_it_work" data-name="How it work" transform="translate(697 5933.202)" fill="#163d47" font-size="54" font-family="Montserrat-Bold, Montserrat" font-weight="700"><tspan x="0" y="0">Token Distribution</tspan></text>
  </g>
</svg>
